[
  {
    "label": "Employee Id",
    "name": "id"
  },
  {
    "label": "First Name",
    "name": "firstName"
  },
  {
    "label": "Last Name",
    "name": "lastName"
  },
  {
    "label": "Email",
    "name": "email"
  },
  {
    "label": "Role",
    "name": "role"
  }

]