[
  {
    "label": "Employee Code",
    "tag": "input",
    "attr": {
      "className": "form-control",
      "type": "text",
      "name": "id",
      "placeholder": "Employee Code..."
    }
  },
  {
    "label": "First Name",
    "tag": "input",
    "attr": {
      "className": "form-control",
      "type": "name",
      "name": "firstName",
      "placeholder": "First Name..."
    }
  },
  {
    "label": "Last Name",
    "tag": "input",
    "attr": {
      "className": "form-control",
      "type": "name",
      "name": "lastName",
      "placeholder": "Last Name..."
    }
  },
  {
    "label": "Email",
    "tag": "input",
    "attr": {
      "className": "form-control",
      "type": "email",
      "name": "email",
      "placeholder": "Email Id..."
    }
  },
  {
    "label": "Role",
    "tag": "select",
    "options": [ { "value": "Software Developer", "label": "Software Developer" },
                { "value": "CEO", "label": "CEO" },
                { "value": "Intern", "label": "Intern" },
      { "value": "Admin", "label": "Admin" }],
    "attr": {
      "className": "form-control",
      "name": "role"
    }
  },
  {
    "label": "Active",
    "tag": "input",
    "attr": {
      "className": "form-row switch",
      "type": "checkbox",
      "name": "active",
      "placeholder": "Active..."
    }
  }
]